{
  "Website": {
    "url": "http://sahlan.xyz/",
    "consumerKey": "ck_1375161dcfe4f036f755dff3147027f2c4ba6af9",
    "consumerSecret": "cs_ff1c646b1fb14e800337afd9c2087d88942af129"
  },
  "Theme": "listable",
  "MainColor": {
    "tabbarTint": "#FF4D58",
    "tabbarColor": "#D5D8DE",
    "mainColorTheme": "#FF4D58",
    "tabbar": "#fff"
  } 
}